
{
    "rules": {
        "align": [
            false,
            "parameters",
            "arguments",
            "statements"
        ],
        "ban": false,
        "class-name": true,
        "comment-format": [
            false,
            "check-space",
            "check-uppercase"
        ],
        "curly": true,
        "eofline": true,
        "forin": true,
        "indent": [
            true, 
            "spaces"
        ],
        "interface-name": [
            true
        ],
        "jsdoc-format": true,
        "label-position": true,
        "label-undefined": true,
        "max-line-length": [
            true, 
            120
        ],
        "member-access": false,
        "member-ordering": [
            true, 
            {
                "order": [
                    "public-instance-field",
                    "protected-instance-field",
                    "private-instance-field",
                    "constructor",
                    "public-instance-method",
                    "protected-instance-method",
                    "private-instance-method",
                    "public-static-field",
                    "protected-static-field",
                    "private-static-field",
                    "public-static-method",
                    "protected-static-method",
                    "private-static-method"
                ]
            }
        ],
        "no-any": false,
        "no-arg": true,
        "no-bitwise": false,
        "no-conditional-assignment": true,
        "no-console": [
            true,
            "debug",
            "info",
            "time",
            "timeEnd",
            "trace"
        ],
        "no-construct": true,
        "no-constructor-vars": true,
        "no-debugger": true,
        "no-duplicate-key": true,
        "no-shadowed-variable": true,
        "no-duplicate-variable": true,
        "no-empty": true,
        "no-eval": true,
        "no-inferrable-types": false,
        "no-internal-module": false,
        "no-require-imports": true,
        "no-string-literal": true,
        "no-switch-case-fall-through": true,
        "no-trailing-whitespace": false,
        "no-unreachable": true,
        "no-unused-expression": true,
        "no-unused-variable": false,
        "no-use-before-declare": false,
        "no-var-keyword": true,
        "no-var-requires": true,
        "one-line": [
            true,
            "check-open-brace",
            "check-catch",
            "check-else",
            "check-whitespace"
        ],
        "quotemark": [
            true, 
            "single", 
            "avoid-escape"
        ],
        "radix": true,
        "semicolon": [
            true, 
            "always"
        ],
        "switch-default": false,
        "triple-equals": [
            true, 
            "allow-null-check"
        ],
        "typedef": [
            true,
            "call-signature",
            "parameter",
            "property-declaration",
            "member-variable-declaration"
        ],
        "typedef-whitespace": [
            true, 
            {
                "call-signature": "nospace",
                "index-signature": "nospace",
                "parameter": "nospace",
                "property-declaration": "nospace",
                "variable-declaration": "nospace"
            }
        ],
        "use-strict": [
            true,
            "check-module",
            "check-function"
        ],
        "variable-name": false,
        "whitespace": [
            true,
            "check-branch",
            "check-decl",
            "check-operator",
            "check-type"
        ]
    }
}